<svg width="24" height="25" viewBox="0 0 24 25" fill="none" xmlns="http://www.w3.org/2000/svg">
<g clip-path="url(#clip0_442_1180)">
<path d="M1.5 16.137H1.25V0.386963H22.75V13.137C22.75 14.7945 21.4075 16.137 19.75 16.137H12.75" stroke="#171321" stroke-width="0.5" stroke-miterlimit="10"/>
<path d="M3.5 14.137L4.5 23.887H10L11 14.137" stroke="#171321" stroke-width="0.5" stroke-miterlimit="10"/>
<path d="M12 14.137H2.5" stroke="#171321" stroke-width="0.5" stroke-miterlimit="10"/>
<path d="M4.58011 14.137L4.52511 12.967C4.50761 12.6095 4.68511 12.2695 4.98761 12.077L6.07261 11.387" stroke="#171321" stroke-width="0.5" stroke-miterlimit="10"/>
<path d="M6.13772 11.7744C6.35272 11.9894 6.68272 12.0344 6.94772 11.8869L7.96272 11.3244C8.35772 11.1044 8.43272 10.5694 8.11272 10.2494C7.89772 10.0344 7.56772 9.98936 7.30272 10.1369L6.28772 10.6994C5.89272 10.9194 5.81772 11.4544 6.13772 11.7744V11.7744Z" stroke="#171321" stroke-width="0.5" stroke-miterlimit="10"/>
<path d="M13.125 11.012L19.355 4.78198" stroke="#171321" stroke-width="0.5" stroke-miterlimit="10"/>
<path d="M8.25 6.88696L11.5 3.63696" stroke="#171321" stroke-width="0.5" stroke-miterlimit="10"/>
</g>
<defs>
<clipPath id="clip0_442_1180">
<rect width="24" height="24" fill="white" transform="translate(0 0.136963)"/>
</clipPath>
</defs>
</svg>
