<svg width="19" height="8" viewBox="0 0 19 8" fill="none" xmlns="http://www.w3.org/2000/svg">
<path d="M11.5632 7.04536L19 1.90735e-06L7.86805e-07 2.46316e-07L7.43677 7.04536C8.59385 8.14155 10.4061 8.14154 11.5632 7.04536Z" fill="#7759C2"/>
</svg>
