<svg width="92" height="11" viewBox="0 0 92 11" fill="none" xmlns="http://www.w3.org/2000/svg">
<path d="M1 5.5C1 3.01472 3.01472 1 5.5 1L23.5 1V10H5.5C3.01472 10 1 7.98528 1 5.5Z" fill="#EEE7FD"/>
<path d="M23.5 1L46 1V10H23.5V1Z" fill="#E3D6FF"/>
<path d="M46 1L68.5 1V10H46V1Z" fill="#A989F5"/>
<path d="M68.5 1L86.5 1C88.9853 1 91 3.01472 91 5.5C91 7.98528 88.9853 10 86.5 10H68.5V1Z" fill="#7759C2"/>
<rect x="0.5" y="0.5" width="91" height="10" rx="5" stroke="#A989F5"/>
</svg>
